{
  "created_at": "2019-02-21T01:13:02.926028",
  "data": {
    "campaign_name_regex": null,
    "datafile_operations": [
      {
        "columns": [
          "pid",
          "timestamp",
          "lat",
          "lon",
          "n",
          "e",
          "dep",
          "roll",
          "pitch",
          "heading",
          "limage",
          "rimage",
          "alt",
          "imgrad",
          "txp"
        ],
        "delimiter": "\t",
        "operation": "loadcsv",
        "skiprows": 57
      },
      {
        "columns": {
          "deployment_id": null,
          "key": "limage",
          "media_type": {
            "ref": "literal",
            "value": "image"
          },
          "pose": {
            "format": {
              "alt": "alt",
              "dep": "dep",
              "lat": "lat",
              "lon": "lon"
            },
            "ref": "struct"
          },
          "posedata": {
            "format": {
              "heading": "heading",
              "pitch": "pitch",
              "roll": "roll"
            },
            "ref": "struct"
          },
          "timestamp": {
            "col": "timestamp",
            "format": "timestamp",
            "ref": "datetime"
          }
        },
        "operation": "df_to_dict"
      },
      {
        "operation": "dict_to_db",
        "table": "media"
      },
      {
        "operation": "dict_to_json"
      }
    ],
    "datasource_paths": {
      "campaign_search": "*",
      "datafile_pattern": "http://soi-uos-data.storage.googleapis.com/{search[path]}",
      "datafile_search": "{deployment[path]}/stereo_pose_est.data",
      "deployment_search": "{campaign[path]}/tuna_sand2/*_ts2_*",
      "media_pattern": "http://soi-uos-data.storage.googleapis.com/{{campaign[key]}}/tuna_sand2/{{deployment[key]}}/images/{{media[key]}}",
      "mediadir_search": null,
      "thumb_pattern": null,
      "thumbdir_search": null,
      "urlbase_browse": "https://www.googleapis.com/storage/v1/b/soi-uos-data/o?delimiter=/&prefix={path}"
    },
    "datasource_type": "GCloud"
  },
  "description": "University of Tokyo AUV",
  "id": 2,
  "name": "UTOK TunaSand2 AUV",
  "reference": null,
  "user_id": 1
}
